/home/lam/Info/IIA/TP6/iia.td6/src/main/java/problemes/tortues/ResolutionTortue.java
/home/lam/Info/IIA/TP6/iia.td6/src/main/java/problemes/cruche/EtatCruche.java
/home/lam/Info/IIA/TP6/iia.td6/src/main/java/problemes/tortues/EtatTortue.java
/home/lam/Info/IIA/TP6/iia.td6/src/main/java/problemes/TD5/EtatAbstraitTD5.java
/home/lam/Info/IIA/TP6/iia.td6/src/main/java/iia/espacesEtats/algorithmes/AlgorithmeRechercheEE.java
/home/lam/Info/IIA/TP6/iia.td6/src/main/java/iia/espacesEtats/algorithmes/RechercheEnLargeur.java
/home/lam/Info/IIA/TP6/iia.td6/src/main/java/iia/espacesEtats/modeles/Solution.java
/home/lam/Info/IIA/TP6/iia.td6/src/main/java/iia/espacesEtats/modeles/Etat.java
/home/lam/Info/IIA/TP6/iia.td6/src/main/java/iia/espacesEtats/algorithmes/RechercheEnProfondeurSimple.java
/home/lam/Info/IIA/TP6/iia.td6/src/main/java/problemes/tortues/ProblemeTortue.java
/home/lam/Info/IIA/TP6/iia.td6/src/main/java/problemes/TD5/ProblemeAbstraitTD5.java
/home/lam/Info/IIA/TP6/iia.td6/src/main/java/iia/espacesEtats/graphes/Noeud.java
/home/lam/Info/IIA/TP6/iia.td6/src/main/java/problemes/cruche/ProblemeCruche.java
/home/lam/Info/IIA/TP6/iia.td6/src/main/java/problemes/TD5/ResolutionTD5.java
/home/lam/Info/IIA/TP6/iia.td6/src/main/java/problemes/cruche/ResolutionCruche.java
/home/lam/Info/IIA/TP6/iia.td6/src/main/java/iia/espacesEtats/algorithmes/RechercheEnProfondeurDetectionDeCycles.java
/home/lam/Info/IIA/TP6/iia.td6/src/main/java/iia/espacesEtats/modeles/Probleme.java
